{
    "albums": {
        "href": "https://api.spotify.com/v1/search?query=Elemental&type=album&offset=0&limit=3",
        "items": [
            {
                "album_type": "album",
                "artists": [
                    {
                        "external_urls": {
                            "spotify": "https://open.spotify.com/artist/1csBgT42N4pPPs1HJhxXIK"
                        },
                        "href": "https://api.spotify.com/v1/artists/1csBgT42N4pPPs1HJhxXIK",
                        "id": "1csBgT42N4pPPs1HJhxXIK",
                        "name": "Thomas Newman",
                        "type": "artist",
                        "uri": "spotify:artist:1csBgT42N4pPPs1HJhxXIK"
                    }
                ],
                "available_markets": [
                    "AD",
                    "AE",
                    "AG",
                    "AL",
                    "AM",
                    "AO",
                    "AR",
                    "AT",
                    "AU",
                    "AZ",
                    "BA",
                    "BB",
                    "BD",
                    "BE",
                    "BF",
                    "BG",
                    "BH",
                    "BI",
                    "BJ",
                    "BN",
                    "BO",
                    "BR",
                    "BS",
                    "BT",
                    "BW",
                    "BZ",
                    "CA",
                    "CD",
                    "CG",
                    "CH",
                    "CI",
                    "CL",
                    "CM",
                    "CO",
                    "CR",
                    "CV",
                    "CW",
                    "CY",
                    "CZ",
                    "DE",
                    "DJ",
                    "DK",
                    "DM",
                    "DO",
                    "DZ",
                    "EC",
                    "EE",
                    "EG",
                    "ES",
                    "ET",
                    "FI",
                    "FJ",
                    "FM",
                    "FR",
                    "GA",
                    "GB",
                    "GD",
                    "GE",
                    "GH",
                    "GM",
                    "GN",
                    "GQ",
                    "GR",
                    "GT",
                    "GW",
                    "GY",
                    "HK",
                    "HN",
                    "HR",
                    "HT",
                    "HU",
                    "ID",
                    "IE",
                    "IL",
                    "IN",
                    "IQ",
                    "IS",
                    "IT",
                    "JM",
                    "JO",
                    "JP",
                    "KE",
                    "KG",
                    "KH",
                    "KI",
                    "KM",
                    "KN",
                    "KR",
                    "KW",
                    "KZ",
                    "LA",
                    "LB",
                    "LC",
                    "LI",
                    "LK",
                    "LR",
                    "LS",
                    "LT",
                    "LU",
                    "LV",
                    "LY",
                    "MA",
                    "MC",
                    "MD",
                    "ME",
                    "MG",
                    "MH",
                    "MK",
                    "ML",
                    "MN",
                    "MO",
                    "MR",
                    "MT",
                    "MU",
                    "MV",
                    "MW",
                    "MX",
                    "MY",
                    "MZ",
                    "NA",
                    "NE",
                    "NG",
                    "NI",
                    "NL",
                    "NO",
                    "NP",
                    "NR",
                    "NZ",
                    "OM",
                    "PA",
                    "PE",
                    "PG",
                    "PH",
                    "PK",
                    "PL",
                    "PS",
                    "PT",
                    "PW",
                    "PY",
                    "QA",
                    "RO",
                    "RS",
                    "RW",
                    "SA",
                    "SB",
                    "SC",
                    "SE",
                    "SG",
                    "SI",
                    "SK",
                    "SL",
                    "SM",
                    "SN",
                    "SR",
                    "ST",
                    "SV",
                    "SZ",
                    "TD",
                    "TG",
                    "TH",
                    "TJ",
                    "TL",
                    "TN",
                    "TO",
                    "TR",
                    "TT",
                    "TV",
                    "TW",
                    "TZ",
                    "UA",
                    "UG",
                    "US",
                    "UY",
                    "UZ",
                    "VC",
                    "VE",
                    "VN",
                    "VU",
                    "WS",
                    "XK",
                    "ZA",
                    "ZM",
                    "ZW"
                ],
                "external_urls": {
                    "spotify": "https://open.spotify.com/album/7L15PXtti3kXEn7vTXi8ZV"
                },
                "href": "https://api.spotify.com/v1/albums/7L15PXtti3kXEn7vTXi8ZV",
                "id": "7L15PXtti3kXEn7vTXi8ZV",
                "images": [
                    {
                        "height": 640,
                        "url": "https://i.scdn.co/image/ab67616d0000b2735a4a12b30ffc095ccb46d2a0",
                        "width": 640
                    },
                    {
                        "height": 300,
                        "url": "https://i.scdn.co/image/ab67616d00001e025a4a12b30ffc095ccb46d2a0",
                        "width": 300
                    },
                    {
                        "height": 64,
                        "url": "https://i.scdn.co/image/ab67616d000048515a4a12b30ffc095ccb46d2a0",
                        "width": 64
                    }
                ],
                "name": "Elemental (Original Motion Picture Soundtrack)",
                "release_date": "2023-06-16",
                "release_date_precision": "day",
                "total_tracks": 37,
                "type": "album",
                "uri": "spotify:album:7L15PXtti3kXEn7vTXi8ZV"
            },
            {
                "album_type": "album",
                "artists": [
                    {
                        "external_urls": {
                            "spotify": "https://open.spotify.com/artist/4bthk9UfsYUYdcFyqxmSUU"
                        },
                        "href": "https://api.spotify.com/v1/artists/4bthk9UfsYUYdcFyqxmSUU",
                        "id": "4bthk9UfsYUYdcFyqxmSUU",
                        "name": "Tears For Fears",
                        "type": "artist",
                        "uri": "spotify:artist:4bthk9UfsYUYdcFyqxmSUU"
                    }
                ],
                "available_markets": [
                    "AD",
                    "AE",
                    "AG",
                    "AL",
                    "AM",
                    "AO",
                    "AR",
                    "AT",
                    "AU",
                    "AZ",
                    "BA",
                    "BB",
                    "BD",
                    "BE",
                    "BF",
                    "BG",
                    "BH",
                    "BI",
                    "BJ",
                    "BN",
                    "BO",
                    "BR",
                    "BS",
                    "BT",
                    "BW",
                    "BY",
                    "BZ",
                    "CA",
                    "CD",
                    "CG",
                    "CH",
                    "CI",
                    "CL",
                    "CM",
                    "CO",
                    "CR",
                    "CV",
                    "CW",
                    "CY",
                    "CZ",
                    "DE",
                    "DJ",
                    "DK",
                    "DM",
                    "DO",
                    "DZ",
                    "EC",
                    "EE",
                    "EG",
                    "ES",
                    "ET",
                    "FI",
                    "FJ",
                    "FM",
                    "FR",
                    "GA",
                    "GB",
                    "GD",
                    "GE",
                    "GH",
                    "GM",
                    "GN",
                    "GQ",
                    "GR",
                    "GT",
                    "GW",
                    "GY",
                    "HK",
                    "HN",
                    "HR",
                    "HT",
                    "HU",
                    "ID",
                    "IE",
                    "IL",
                    "IN",
                    "IQ",
                    "IS",
                    "IT",
                    "JM",
                    "JO",
                    "JP",
                    "KE",
                    "KG",
                    "KH",
                    "KI",
                    "KM",
                    "KN",
                    "KR",
                    "KW",
                    "KZ",
                    "LA",
                    "LB",
                    "LC",
                    "LI",
                    "LK",
                    "LR",
                    "LS",
                    "LT",
                    "LU",
                    "LV",
                    "LY",
                    "MA",
                    "MC",
                    "MD",
                    "ME",
                    "MG",
                    "MH",
                    "MK",
                    "ML",
                    "MN",
                    "MO",
                    "MR",
                    "MT",
                    "MU",
                    "MV",
                    "MW",
                    "MX",
                    "MY",
                    "MZ",
                    "NA",
                    "NE",
                    "NG",
                    "NI",
                    "NL",
                    "NO",
                    "NP",
                    "NR",
                    "NZ",
                    "OM",
                    "PA",
                    "PE",
                    "PG",
                    "PH",
                    "PK",
                    "PL",
                    "PS",
                    "PT",
                    "PW",
                    "PY",
                    "QA",
                    "RO",
                    "RS",
                    "RW",
                    "SA",
                    "SB",
                    "SC",
                    "SE",
                    "SG",
                    "SI",
                    "SK",
                    "SL",
                    "SM",
                    "SN",
                    "SR",
                    "ST",
                    "SV",
                    "SZ",
                    "TD",
                    "TG",
                    "TH",
                    "TJ",
                    "TL",
                    "TN",
                    "TO",
                    "TR",
                    "TT",
                    "TV",
                    "TW",
                    "TZ",
                    "UA",
                    "UG",
                    "US",
                    "UY",
                    "UZ",
                    "VC",
                    "VE",
                    "VN",
                    "VU",
                    "WS",
                    "XK",
                    "ZA",
                    "ZM",
                    "ZW"
                ],
                "external_urls": {
                    "spotify": "https://open.spotify.com/album/3yYeYX26WNepcjOFY34ki4"
                },
                "href": "https://api.spotify.com/v1/albums/3yYeYX26WNepcjOFY34ki4",
                "id": "3yYeYX26WNepcjOFY34ki4",
                "images": [
                    {
                        "height": 640,
                        "url": "https://i.scdn.co/image/ab67616d0000b2739dc5e6f35a377190119708ad",
                        "width": 640
                    },
                    {
                        "height": 300,
                        "url": "https://i.scdn.co/image/ab67616d00001e029dc5e6f35a377190119708ad",
                        "width": 300
                    },
                    {
                        "height": 64,
                        "url": "https://i.scdn.co/image/ab67616d000048519dc5e6f35a377190119708ad",
                        "width": 64
                    }
                ],
                "name": "Elemental",
                "release_date": "1993-06-07",
                "release_date_precision": "day",
                "total_tracks": 10,
                "type": "album",
                "uri": "spotify:album:3yYeYX26WNepcjOFY34ki4"
            },
            {
                "album_type": "single",
                "artists": [
                    {
                        "external_urls": {
                            "spotify": "https://open.spotify.com/artist/5JZ7CnR6gTvEMKX4g70Amv"
                        },
                        "href": "https://api.spotify.com/v1/artists/5JZ7CnR6gTvEMKX4g70Amv",
                        "id": "5JZ7CnR6gTvEMKX4g70Amv",
                        "name": "Lauv",
                        "type": "artist",
                        "uri": "spotify:artist:5JZ7CnR6gTvEMKX4g70Amv"
                    }
                ],
                "available_markets": [
                    "AD",
                    "AE",
                    "AG",
                    "AL",
                    "AM",
                    "AO",
                    "AR",
                    "AT",
                    "AU",
                    "AZ",
                    "BA",
                    "BB",
                    "BD",
                    "BE",
                    "BF",
                    "BG",
                    "BH",
                    "BI",
                    "BJ",
                    "BN",
                    "BO",
                    "BR",
                    "BS",
                    "BT",
                    "BW",
                    "BZ",
                    "CA",
                    "CD",
                    "CG",
                    "CH",
                    "CI",
                    "CL",
                    "CM",
                    "CO",
                    "CR",
                    "CV",
                    "CW",
                    "CY",
                    "CZ",
                    "DE",
                    "DJ",
                    "DK",
                    "DM",
                    "DO",
                    "DZ",
                    "EC",
                    "EE",
                    "EG",
                    "ES",
                    "ET",
                    "FI",
                    "FJ",
                    "FM",
                    "FR",
                    "GA",
                    "GB",
                    "GD",
                    "GE",
                    "GH",
                    "GM",
                    "GN",
                    "GQ",
                    "GR",
                    "GT",
                    "GW",
                    "GY",
                    "HK",
                    "HN",
                    "HR",
                    "HT",
                    "HU",
                    "ID",
                    "IE",
                    "IL",
                    "IN",
                    "IQ",
                    "IS",
                    "IT",
                    "JM",
                    "JO",
                    "JP",
                    "KE",
                    "KG",
                    "KH",
                    "KI",
                    "KM",
                    "KN",
                    "KR",
                    "KW",
                    "KZ",
                    "LA",
                    "LB",
                    "LC",
                    "LI",
                    "LK",
                    "LR",
                    "LS",
                    "LT",
                    "LU",
                    "LV",
                    "LY",
                    "MA",
                    "MC",
                    "MD",
                    "ME",
                    "MG",
                    "MH",
                    "MK",
                    "ML",
                    "MN",
                    "MO",
                    "MR",
                    "MT",
                    "MU",
                    "MV",
                    "MW",
                    "MX",
                    "MY",
                    "MZ",
                    "NA",
                    "NE",
                    "NG",
                    "NI",
                    "NL",
                    "NO",
                    "NP",
                    "NR",
                    "NZ",
                    "OM",
                    "PA",
                    "PE",
                    "PG",
                    "PH",
                    "PK",
                    "PL",
                    "PS",
                    "PT",
                    "PW",
                    "PY",
                    "QA",
                    "RO",
                    "RS",
                    "RW",
                    "SA",
                    "SB",
                    "SC",
                    "SE",
                    "SG",
                    "SI",
                    "SK",
                    "SL",
                    "SM",
                    "SN",
                    "SR",
                    "ST",
                    "SV",
                    "SZ",
                    "TD",
                    "TG",
                    "TH",
                    "TJ",
                    "TL",
                    "TN",
                    "TO",
                    "TR",
                    "TT",
                    "TV",
                    "TW",
                    "TZ",
                    "UA",
                    "UG",
                    "US",
                    "UY",
                    "UZ",
                    "VC",
                    "VE",
                    "VN",
                    "VU",
                    "WS",
                    "XK",
                    "ZA",
                    "ZM",
                    "ZW"
                ],
                "external_urls": {
                    "spotify": "https://open.spotify.com/album/1rMI4GKDwtz8Ok0e7jbE4l"
                },
                "href": "https://api.spotify.com/v1/albums/1rMI4GKDwtz8Ok0e7jbE4l",
                "id": "1rMI4GKDwtz8Ok0e7jbE4l",
                "images": [
                    {
                        "height": 640,
                        "url": "https://i.scdn.co/image/ab67616d0000b27322bbb2bd9c0d6bec5057d535",
                        "width": 640
                    },
                    {
                        "height": 300,
                        "url": "https://i.scdn.co/image/ab67616d00001e0222bbb2bd9c0d6bec5057d535",
                        "width": 300
                    },
                    {
                        "height": 64,
                        "url": "https://i.scdn.co/image/ab67616d0000485122bbb2bd9c0d6bec5057d535",
                        "width": 64
                    }
                ],
                "name": "Steal The Show (From \"Elemental\")",
                "release_date": "2023-06-02",
                "release_date_precision": "day",
                "total_tracks": 1,
                "type": "album",
                "uri": "spotify:album:1rMI4GKDwtz8Ok0e7jbE4l"
            }
        ],
        "limit": 3,
        "next": "https://api.spotify.com/v1/search?query=Elemental&type=album&offset=3&limit=3",
        "offset": 0,
        "previous": null,
        "total": 821
    }
}